7 Visualización de Variables Cualitativas – Análisis Exploratorio de Datos
…
deptos <- cultivos %>% 
  filter(
    prov == "SANTA FE", 
    campaña == "2019/20",
    !cultivo %in% c("Soja 1ra", "Soja 2da")
    ) %>% 
  group_by(dpto, cultivo) %>% 
  summarise(
    prod = sum(prod, na.rm = TRUE), 
    .groups = "drop"
    )

deptos

# A tibble: 134 × 3
   dpto       cultivo        prod
   <chr>      <chr>         <dbl>
 1 9 DE JULIO Algodón       64400
 2 9 DE JULIO Avena             0
 3 9 DE JULIO Girasol       51230
 4 9 DE JULIO Maíz         174240
 5 9 DE JULIO Soja total   269220
 6 9 DE JULIO Sorgo         29760
 7 9 DE JULIO Trigo total  233750
 8 BELGRANO   Avena          1081
 9 BELGRANO   Cebada total   6696
10 BELGRANO   Centeno         499
# ℹ 124 more rows
…
  #Uno con dataset original
  bind_rows(deptos) %>% 
  
  #Genero etiquetas únicas
  mutate(etiq = ifelse(dpto != "Total Santa Fe", paste0(cultivo, "_", dpto), cultivo))

deptos_tot

# A tibble: 153 × 4
   cultivo             prod dpto           etiq            
   <chr>              <dbl> <chr>          <chr>           
 1 9 DE JULIO        822600 Total Santa Fe 9 DE JULIO      
 2 BELGRANO         1127600 Total Santa Fe BELGRANO        
 3 CASEROS          1541017 Total Santa Fe CASEROS         
 4 CASTELLANOS      1999437 Total Santa Fe CASTELLANOS     
 5 CONSTITUCION     1159655 Total Santa Fe CONSTITUCION    
 6 GARAY              90715 Total Santa Fe GARAY           
 7 GENERAL LOPEZ    5036462 Total Santa Fe GENERAL LOPEZ   
 8 GENERAL OBLIGADO  535935 Total Santa Fe GENERAL OBLIGADO
 9 IRIONDO          1505450 Total Santa Fe IRIONDO         
10 LA CAPITAL        148791 Total Santa Fe LA CAPITAL      
# ℹ 143 more rows
…
7.8.1 Frecuencias y nubes de palabras

Vamos a detectar cuáles son las palabras más frecuentes en esta base. Mediante la función unnest_tokens() del paquete tidytext extraemos las palabras que componen cada tweet y ubicamos cada una de ellas en las filas de un nuevo dataset. Luego agregamos su frecuencia absoluta y nos quedamos con aquellos términos con al menos 4 caracteres:

library(tidytext)

frecuencias <- tweets %>% 
  unnest_tokens(palabras, limpios) %>% 
  count(palabras, sort = TRUE, name = "frec") %>% 
  filter(nchar(palabras) > 3) %>% 
  arrange(-frec)

frecuencias

# A tibble: 16,340 × 2
   palabras   frec
   <chr>     <int>
 1 argentina  2355
 2 messi      2044
 3 vamos      1340
 4 mundial    1132
 5 bobo       1117
 6 mundo       882
 7 mejor       839
 8 partido     837
 9 futbol      741
10 final       721
# ℹ 16,330 more rows
…
7.8.2 Co-ocurrencia, asociación entre palabras y grafos

Otro análisis básico para datos textuales consiste en identificar cuáles son los pares de palabras que aparecen juntas frecuentemente (no necesariamente una después de la otra, sino en los mismos documentos).

Para contar la cantidad de tweets en donde aparece cada par de palabras, vamos a valernos del paquete widyr y la función pairwise_count():

palabras_tweet <- tweets %>%
  select(id, limpios) %>% 
  unnest_tokens(palabras, limpios) %>% 
  filter(nchar(palabras) > 3)

pares_frec <- pairwise_count(palabras_tweet, palabras, id, sort = TRUE)
pares_frec

# A tibble: 756,550 × 3
   item1     item2         n
   <chr>     <chr>     <dbl>
 1 miras     bobo        472
 2 bobo      miras       472
 3 argentina vamos       445
 4 vamos     argentina   445
 5 messi     argentina   433
 6 argentina messi       433
 7 bajos     paises      429
 8 paises    bajos       429
 9 bobo      anda        353
10 anda      bobo        353
# ℹ 756,540 more rows

Los binomios más comunes son “miras bobo” (de la famosa frase de Messi, qué mirás bobo, andá pa’ allá bobo), “vamos argentina”, “paises bajos”, etc.

Podemos buscar palabras de nuestro interés para saber con qué términos se asocian frecuentemente:

filter(pares_frec, item1 == "dibu")

# A tibble: 887 × 3
   item1 item2           n
   <chr> <chr>       <dbl>
 1 dibu  martinez       66
 2 dibu  messi          54
 3 dibu  argentina      51
 4 dibu  penales        24
 5 dibu  gracias        23
 6 dibu  semifinales    23
 7 dibu  vamos          19
 8 dibu  seleccion      18
 9 dibu  paises         17
10 dibu  bajos          17
# ℹ 877 more rows

filter(pares_frec, item1 == "scaloneta") 

# A tibble: 291 × 3
   item1     item2         n
   <chr>     <chr>     <dbl>
 1 scaloneta argentina    19
 2 scaloneta vamos        15
 3 scaloneta seleccion     9
 4 scaloneta mundo         7
 5 scaloneta messi         6
 6 scaloneta final         5
 7 scaloneta qatar         5
 8 scaloneta juega         5
 9 scaloneta mundial       4
10 scaloneta pase          4
# ℹ 281 more rows

filter(pares_frec, item1 == "muchachos")

# A tibble: 409 × 3
   item1     item2         n
   <chr>     <chr>     <dbl>
 1 muchachos vamos        30
 2 muchachos argentina    23
 3 muchachos gracias      20
 4 muchachos ilusionar    19
 5 muchachos volvimos     18
 6 muchachos ahora        14
 7 muchachos mundial      11
 8 muchachos campeon      11
 9 muchachos quiero       10
10 muchachos ganar         9
# ℹ 399 more rows

Un par de palabras que ocurren muchas veces juntas podrían no estar específicamente asociadas entre sí, sobre todo si una de ellas posee alta frecuencia en términos generales (por ej., arriba vimos que la palabra argentina aparece muy asociada a dibu, scaloneta y muchachos).

Para saber qué par de palabras se asocian entre sí, pero generalmente a ninguna otra, se emplea un coeficiente de asociación entre variables binarias llamado \(\phi\).

Podemos calcular este coeficiente para cada par de palabras con la función pairwise_cor().

pares_corr <- palabras_tweet %>%
  group_by(palabras) %>%
  filter(n() >= 20) %>%
  pairwise_cor(palabras, id, sort = TRUE)
  
filter(pares_corr, item1 == "muchachos") 

# A tibble: 881 × 3
   item1     item2     correlation
   <chr>     <chr>           <dbl>
 1 muchachos ilusionar      0.356 
 2 muchachos volvimos       0.355 
 3 muchachos tercera        0.159 
 4 muchachos podemos        0.100 
 5 muchachos gracias        0.0889
 6 muchachos cielo          0.0822
 7 muchachos vamos          0.0766
 8 muchachos felices        0.0694
 9 muchachos campeon        0.0592
10 muchachos ahora          0.0565
# ℹ 871 more rows
…
